<?xml version="1.0" encoding="UTF-8" standalone="no"?>
<!-- Created with Inkscape (http://www.inkscape.org/) -->

<svg
   xmlns:dc="http://purl.org/dc/elements/1.1/"
   xmlns:cc="http://creativecommons.org/ns#"
   xmlns:rdf="http://www.w3.org/1999/02/22-rdf-syntax-ns#"
   xmlns:svg="http://www.w3.org/2000/svg"
   xmlns="http://www.w3.org/2000/svg"
   xmlns:sodipodi="http://sodipodi.sourceforge.net/DTD/sodipodi-0.dtd"
   xmlns:inkscape="http://www.inkscape.org/namespaces/inkscape"
   width="32px"
   height="32px"
   id="svg2816"
   version="1.1"
   inkscape:version="0.48.3.1 r9886"
   sodipodi:docname="select_bold.svg">
  <defs
     id="defs2818">
    <inkscape:perspective
       sodipodi:type="inkscape:persp3d"
       inkscape:vp_x="0 : 16 : 1"
       inkscape:vp_y="0 : 1000 : 0"
       inkscape:vp_z="32 : 16 : 1"
       inkscape:persp3d-origin="16 : 10.666667 : 1"
       id="perspective2824" />
    <inkscape:perspective
       id="perspective3616"
       inkscape:persp3d-origin="0.5 : 0.33333333 : 1"
       inkscape:vp_z="1 : 0.5 : 1"
       inkscape:vp_y="0 : 1000 : 0"
       inkscape:vp_x="0 : 0.5 : 1"
       sodipodi:type="inkscape:persp3d" />
    <inkscape:perspective
       id="perspective3646"
       inkscape:persp3d-origin="0.5 : 0.33333333 : 1"
       inkscape:vp_z="1 : 0.5 : 1"
       inkscape:vp_y="0 : 1000 : 0"
       inkscape:vp_x="0 : 0.5 : 1"
       sodipodi:type="inkscape:persp3d" />
    <inkscape:perspective
       id="perspective4412"
       inkscape:persp3d-origin="0.5 : 0.33333333 : 1"
       inkscape:vp_z="1 : 0.5 : 1"
       inkscape:vp_y="0 : 1000 : 0"
       inkscape:vp_x="0 : 0.5 : 1"
       sodipodi:type="inkscape:persp3d" />
  </defs>
  <sodipodi:namedview
     id="base"
     pagecolor="#ffffff"
     bordercolor="#666666"
     borderopacity="1.0"
     inkscape:pageopacity="0.0"
     inkscape:pageshadow="2"
     inkscape:zoom="12.847864"
     inkscape:cx="-2.1877361"
     inkscape:cy="23.144832"
     inkscape:current-layer="g3662"
     showgrid="true"
     inkscape:grid-bbox="true"
     inkscape:document-units="px"
     inkscape:window-width="1600"
     inkscape:window-height="853"
     inkscape:window-x="-3"
     inkscape:window-y="-3"
     inkscape:window-maximized="1">
    <inkscape:grid
       type="xygrid"
       id="grid3660" />
  </sodipodi:namedview>
  <metadata
     id="metadata2821">
    <rdf:RDF>
      <cc:Work
         rdf:about="">
        <dc:format>image/svg+xml</dc:format>
        <dc:type
           rdf:resource="http://purl.org/dc/dcmitype/StillImage" />
        <dc:title></dc:title>
      </cc:Work>
    </rdf:RDF>
  </metadata>
  <g
     id="layer1"
     inkscape:label="Layer 1"
     inkscape:groupmode="layer">
    <path
       style="fill:none;stroke:#000000;stroke-width:1.2;stroke-linecap:round;stroke-miterlimit:4;stroke-opacity:1;stroke-dasharray:4.8,4.8;stroke-dashoffset:0"
       d="M 10.4,8.2731754 C 10.24654,9.8752473 9.4979218,10.218089 8.1082475,10.674514 l -10e-8,16.894126 19.3917526,0 0,-19.2954646 -17.1,0 z"
       id="rect2826"
       sodipodi:nodetypes="cccccc" />
    <path
       sodipodi:type="arc"
       style="fill:none;stroke:#000000;stroke-width:1.2512999;stroke-linecap:round;stroke-miterlimit:4;stroke-opacity:1;stroke-dasharray:none;stroke-dashoffset:0"
       id="path3600-4"
       sodipodi:cx="5.3581944"
       sodipodi:cy="5.4322863"
       sodipodi:rx="2.4111874"
       sodipodi:ry="2.1879294"
       d="m 7.7693818,5.4322863 a 2.4111874,2.1879294 0 1 1 -4.8223749,0 2.4111874,2.1879294 0 1 1 4.8223749,0 z"
       transform="matrix(0.89002832,0,0,1.0333224,3.4850302,2.5496127)" />
    <g
       id="g3662"
       transform="matrix(0.9,0,0,0.8820784,41,3.5949783)">
      <path
         id="path3636"
         d="m -20,27 10,0.178607"
         style="fill:none;stroke:#000000;stroke-width:1.3468102;stroke-linecap:butt;stroke-linejoin:miter;stroke-opacity:1;stroke-miterlimit:4;stroke-dasharray:none" />
      <path
         id="path3636-8"
         d="m -15.088155,32.000797 -0.0023,-10.001594"
         style="fill:none;stroke:#000000;stroke-width:1.3468102;stroke-linecap:butt;stroke-linejoin:miter;stroke-opacity:1;stroke-miterlimit:4;stroke-dasharray:none" />
    </g>
    <g
       style="font-size:40px;font-style:normal;font-weight:normal;fill:#000000;fill-opacity:1;stroke:none;font-family:Bitstream Vera Sans"
       id="text4241"
       transform="matrix(0.34622465,-0.36073327,0.36073327,0.34622465,10.348113,3.1624645)">
      <path
         d="m -8.5570674,-9.3848991 2.7697972,2.8858662 -1.4429331,1.3848986 L -10,-8.0000005 l -2.885867,2.7697972 -1.384898,-1.4429331 2.885866,-2.7697972 -2.769797,-2.8858664 1.442933,-1.384898 2.769797,2.885866 2.8858662,-2.769797 1.3848986,1.442933"
         style="fill:#020000;fill-opacity:0.64220186"
         id="path4246"
         sodipodi:nodetypes="cccccccccccc" />
    </g>
  </g>
</svg>
